%YAML 1.1
%TAG !u! tag:unity3d.com,2011:
--- !u!1001 &7378215399477641627
PrefabInstance:
  m_ObjectHideFlags: 0
  serializedVersion: 2
  m_Modification:
    m_TransformParent: {fileID: 0}
    m_Modifications:
    - target: {fileID: 3411264925900062649, guid: 8e5c3b2c6f69a78419bb34331b80b015,
        type: 3}
      propertyPath: m_Name
      value: Tile - north west
      objectReference: {fileID: 0}
    - target: {fileID: 3411264925900062630, guid: 8e5c3b2c6f69a78419bb34331b80b015,
        type: 3}
      propertyPath: m_LocalPosition.x
      value: 1
      objectReference: {fileID: 0}
    - target: {fileID: 3411264925900062630, guid: 8e5c3b2c6f69a78419bb34331b80b015,
        type: 3}
      propertyPath: m_LocalPosition.y
      value: 1
      objectReference: {fileID: 0}
    - target: {fileID: 3411264925900062630, guid: 8e5c3b2c6f69a78419bb34331b80b015,
        type: 3}
      propertyPath: m_LocalPosition.z
      value: 1
      objectReference: {fileID: 0}
    - target: {fileID: 3411264925900062630, guid: 8e5c3b2c6f69a78419bb34331b80b015,
        type: 3}
      propertyPath: m_LocalRotation.x
      value: 0
      objectReference: {fileID: 0}
    - target: {fileID: 3411264925900062630, guid: 8e5c3b2c6f69a78419bb34331b80b015,
        type: 3}
      propertyPath: m_LocalRotation.y
      value: -0.7071068
      objectReference: {fileID: 0}
    - target: {fileID: 3411264925900062630, guid: 8e5c3b2c6f69a78419bb34331b80b015,
        type: 3}
      propertyPath: m_LocalRotation.z
      value: 0
      objectReference: {fileID: 0}
    - target: {fileID: 3411264925900062630, guid: 8e5c3b2c6f69a78419bb34331b80b015,
        type: 3}
      propertyPath: m_LocalRotation.w
      value: 0.7071068
      objectReference: {fileID: 0}
    - target: {fileID: 3411264925900062630, guid: 8e5c3b2c6f69a78419bb34331b80b015,
        type: 3}
      propertyPath: m_RootOrder
      value: 0
      objectReference: {fileID: 0}
    - target: {fileID: 3411264925900062630, guid: 8e5c3b2c6f69a78419bb34331b80b015,
        type: 3}
      propertyPath: m_LocalEulerAnglesHint.x
      value: 0
      objectReference: {fileID: 0}
    - target: {fileID: 3411264925900062630, guid: 8e5c3b2c6f69a78419bb34331b80b015,
        type: 3}
      propertyPath: m_LocalEulerAnglesHint.y
      value: -90
      objectReference: {fileID: 0}
    - target: {fileID: 3411264925900062630, guid: 8e5c3b2c6f69a78419bb34331b80b015,
        type: 3}
      propertyPath: m_LocalEulerAnglesHint.z
      value: 0
      objectReference: {fileID: 0}
    - target: {fileID: 4734885928755166628, guid: 8e5c3b2c6f69a78419bb34331b80b015,
        type: 3}
      propertyPath: m_Name
      value: North
      objectReference: {fileID: 0}
    - target: {fileID: 8360950923954838059, guid: 8e5c3b2c6f69a78419bb34331b80b015,
        type: 3}
      propertyPath: m_Name
      value: West
      objectReference: {fileID: 0}
    - target: {fileID: 735004851815347937, guid: 8e5c3b2c6f69a78419bb34331b80b015,
        type: 3}
      propertyPath: m_Materials.Array.data[0]
      value: 
      objectReference: {fileID: 2100000, guid: 333a08b54ec5eec4f84f74d910ad751e, type: 2}
    m_RemovedComponents: []
  m_SourcePrefab: {fileID: 100100000, guid: 8e5c3b2c6f69a78419bb34331b80b015, type: 3}
