%YAML 1.1
%TAG !u! tag:unity3d.com,2011:
--- !u!1001 &2146056815741077506
PrefabInstance:
  m_ObjectHideFlags: 0
  serializedVersion: 2
  m_Modification:
    m_TransformParent: {fileID: 5592695790612703909}
    m_Modifications:
    - target: {fileID: 1627412908355568, guid: b755346e6abd373439d43487f7f760c6, type: 3}
      propertyPath: m_Name
      value: pillar
      objectReference: {fileID: 0}
    - target: {fileID: 4561529027517492, guid: b755346e6abd373439d43487f7f760c6, type: 3}
      propertyPath: m_LocalPosition.x
      value: 2.9
      objectReference: {fileID: 0}
    - target: {fileID: 4561529027517492, guid: b755346e6abd373439d43487f7f760c6, type: 3}
      propertyPath: m_LocalPosition.y
      value: 0
      objectReference: {fileID: 0}
    - target: {fileID: 4561529027517492, guid: b755346e6abd373439d43487f7f760c6, type: 3}
      propertyPath: m_LocalPosition.z
      value: 2.9
      objectReference: {fileID: 0}
    - target: {fileID: 4561529027517492, guid: b755346e6abd373439d43487f7f760c6, type: 3}
      propertyPath: m_LocalRotation.x
      value: -0
      objectReference: {fileID: 0}
    - target: {fileID: 4561529027517492, guid: b755346e6abd373439d43487f7f760c6, type: 3}
      propertyPath: m_LocalRotation.y
      value: -0
      objectReference: {fileID: 0}
    - target: {fileID: 4561529027517492, guid: b755346e6abd373439d43487f7f760c6, type: 3}
      propertyPath: m_LocalRotation.z
      value: -0
      objectReference: {fileID: 0}
    - target: {fileID: 4561529027517492, guid: b755346e6abd373439d43487f7f760c6, type: 3}
      propertyPath: m_LocalRotation.w
      value: 1
      objectReference: {fileID: 0}
    - target: {fileID: 4561529027517492, guid: b755346e6abd373439d43487f7f760c6, type: 3}
      propertyPath: m_RootOrder
      value: 2
      objectReference: {fileID: 0}
    - target: {fileID: 4561529027517492, guid: b755346e6abd373439d43487f7f760c6, type: 3}
      propertyPath: m_LocalEulerAnglesHint.x
      value: 0
      objectReference: {fileID: 0}
    - target: {fileID: 4561529027517492, guid: b755346e6abd373439d43487f7f760c6, type: 3}
      propertyPath: m_LocalEulerAnglesHint.y
      value: 0
      objectReference: {fileID: 0}
    - target: {fileID: 4561529027517492, guid: b755346e6abd373439d43487f7f760c6, type: 3}
      propertyPath: m_LocalEulerAnglesHint.z
      value: 0
      objectReference: {fileID: 0}
    - target: {fileID: 4561529027517492, guid: b755346e6abd373439d43487f7f760c6, type: 3}
      propertyPath: m_LocalScale.x
      value: 1
      objectReference: {fileID: 0}
    - target: {fileID: 4561529027517492, guid: b755346e6abd373439d43487f7f760c6, type: 3}
      propertyPath: m_LocalScale.y
      value: 1
      objectReference: {fileID: 0}
    - target: {fileID: 4561529027517492, guid: b755346e6abd373439d43487f7f760c6, type: 3}
      propertyPath: m_LocalScale.z
      value: 1
      objectReference: {fileID: 0}
    m_RemovedComponents: []
  m_SourcePrefab: {fileID: 100100000, guid: b755346e6abd373439d43487f7f760c6, type: 3}
--- !u!1001 &2549242931222727388
PrefabInstance:
  m_ObjectHideFlags: 0
  serializedVersion: 2
  m_Modification:
    m_TransformParent: {fileID: 5592695790612703909}
    m_Modifications:
    - target: {fileID: 1266246190822382, guid: da24672af79d5b04da5388660c6aabd9, type: 3}
      propertyPath: m_Name
      value: wall
      objectReference: {fileID: 0}
    - target: {fileID: 4422338931104976, guid: da24672af79d5b04da5388660c6aabd9, type: 3}
      propertyPath: m_LocalPosition.x
      value: 0
      objectReference: {fileID: 0}
    - target: {fileID: 4422338931104976, guid: da24672af79d5b04da5388660c6aabd9, type: 3}
      propertyPath: m_LocalPosition.y
      value: 0
      objectReference: {fileID: 0}
    - target: {fileID: 4422338931104976, guid: da24672af79d5b04da5388660c6aabd9, type: 3}
      propertyPath: m_LocalPosition.z
      value: 2.9
      objectReference: {fileID: 0}
    - target: {fileID: 4422338931104976, guid: da24672af79d5b04da5388660c6aabd9, type: 3}
      propertyPath: m_LocalRotation.x
      value: 0
      objectReference: {fileID: 0}
    - target: {fileID: 4422338931104976, guid: da24672af79d5b04da5388660c6aabd9, type: 3}
      propertyPath: m_LocalRotation.y
      value: 0
      objectReference: {fileID: 0}
    - target: {fileID: 4422338931104976, guid: da24672af79d5b04da5388660c6aabd9, type: 3}
      propertyPath: m_LocalRotation.z
      value: 0
      objectReference: {fileID: 0}
    - target: {fileID: 4422338931104976, guid: da24672af79d5b04da5388660c6aabd9, type: 3}
      propertyPath: m_LocalRotation.w
      value: 1
      objectReference: {fileID: 0}
    - target: {fileID: 4422338931104976, guid: da24672af79d5b04da5388660c6aabd9, type: 3}
      propertyPath: m_RootOrder
      value: 0
      objectReference: {fileID: 0}
    - target: {fileID: 4422338931104976, guid: da24672af79d5b04da5388660c6aabd9, type: 3}
      propertyPath: m_LocalEulerAnglesHint.x
      value: 0
      objectReference: {fileID: 0}
    - target: {fileID: 4422338931104976, guid: da24672af79d5b04da5388660c6aabd9, type: 3}
      propertyPath: m_LocalEulerAnglesHint.y
      value: 0
      objectReference: {fileID: 0}
    - target: {fileID: 4422338931104976, guid: da24672af79d5b04da5388660c6aabd9, type: 3}
      propertyPath: m_LocalEulerAnglesHint.z
      value: 0
      objectReference: {fileID: 0}
    m_RemovedComponents: []
  m_SourcePrefab: {fileID: 100100000, guid: da24672af79d5b04da5388660c6aabd9, type: 3}
--- !u!1001 &6691115382775158411
PrefabInstance:
  m_ObjectHideFlags: 0
  serializedVersion: 2
  m_Modification:
    m_TransformParent: {fileID: 0}
    m_Modifications:
    - target: {fileID: 1248100589664515644, guid: d907d7a642b8dc44d84b29e2301fc9ae,
        type: 3}
      propertyPath: m_Name
      value: floor
      objectReference: {fileID: 0}
    - target: {fileID: 1244861352212560942, guid: d907d7a642b8dc44d84b29e2301fc9ae,
        type: 3}
      propertyPath: m_LocalPosition.x
      value: 0
      objectReference: {fileID: 0}
    - target: {fileID: 1244861352212560942, guid: d907d7a642b8dc44d84b29e2301fc9ae,
        type: 3}
      propertyPath: m_LocalPosition.y
      value: 0
      objectReference: {fileID: 0}
    - target: {fileID: 1244861352212560942, guid: d907d7a642b8dc44d84b29e2301fc9ae,
        type: 3}
      propertyPath: m_LocalPosition.z
      value: 0
      objectReference: {fileID: 0}
    - target: {fileID: 1244861352212560942, guid: d907d7a642b8dc44d84b29e2301fc9ae,
        type: 3}
      propertyPath: m_LocalRotation.x
      value: 0
      objectReference: {fileID: 0}
    - target: {fileID: 1244861352212560942, guid: d907d7a642b8dc44d84b29e2301fc9ae,
        type: 3}
      propertyPath: m_LocalRotation.y
      value: 0
      objectReference: {fileID: 0}
    - target: {fileID: 1244861352212560942, guid: d907d7a642b8dc44d84b29e2301fc9ae,
        type: 3}
      propertyPath: m_LocalRotation.z
      value: 0
      objectReference: {fileID: 0}
    - target: {fileID: 1244861352212560942, guid: d907d7a642b8dc44d84b29e2301fc9ae,
        type: 3}
      propertyPath: m_LocalRotation.w
      value: 1
      objectReference: {fileID: 0}
    - target: {fileID: 1244861352212560942, guid: d907d7a642b8dc44d84b29e2301fc9ae,
        type: 3}
      propertyPath: m_RootOrder
      value: 0
      objectReference: {fileID: 0}
    - target: {fileID: 1244861352212560942, guid: d907d7a642b8dc44d84b29e2301fc9ae,
        type: 3}
      propertyPath: m_LocalEulerAnglesHint.x
      value: 0
      objectReference: {fileID: 0}
    - target: {fileID: 1244861352212560942, guid: d907d7a642b8dc44d84b29e2301fc9ae,
        type: 3}
      propertyPath: m_LocalEulerAnglesHint.y
      value: 0
      objectReference: {fileID: 0}
    - target: {fileID: 1244861352212560942, guid: d907d7a642b8dc44d84b29e2301fc9ae,
        type: 3}
      propertyPath: m_LocalEulerAnglesHint.z
      value: 0
      objectReference: {fileID: 0}
    m_RemovedComponents: []
  m_SourcePrefab: {fileID: 100100000, guid: d907d7a642b8dc44d84b29e2301fc9ae, type: 3}
--- !u!4 &5592695790612703909 stripped
Transform:
  m_CorrespondingSourceObject: {fileID: 1244861352212560942, guid: d907d7a642b8dc44d84b29e2301fc9ae,
    type: 3}
  m_PrefabInstance: {fileID: 6691115382775158411}
  m_PrefabAsset: {fileID: 0}
--- !u!1001 &8968841965820561900
PrefabInstance:
  m_ObjectHideFlags: 0
  serializedVersion: 2
  m_Modification:
    m_TransformParent: {fileID: 5592695790612703909}
    m_Modifications:
    - target: {fileID: 1266246190822382, guid: da24672af79d5b04da5388660c6aabd9, type: 3}
      propertyPath: m_Name
      value: wall (1)
      objectReference: {fileID: 0}
    - target: {fileID: 4422338931104976, guid: da24672af79d5b04da5388660c6aabd9, type: 3}
      propertyPath: m_LocalPosition.x
      value: 2.9
      objectReference: {fileID: 0}
    - target: {fileID: 4422338931104976, guid: da24672af79d5b04da5388660c6aabd9, type: 3}
      propertyPath: m_LocalPosition.y
      value: 0
      objectReference: {fileID: 0}
    - target: {fileID: 4422338931104976, guid: da24672af79d5b04da5388660c6aabd9, type: 3}
      propertyPath: m_LocalPosition.z
      value: 0
      objectReference: {fileID: 0}
    - target: {fileID: 4422338931104976, guid: da24672af79d5b04da5388660c6aabd9, type: 3}
      propertyPath: m_LocalRotation.x
      value: 0
      objectReference: {fileID: 0}
    - target: {fileID: 4422338931104976, guid: da24672af79d5b04da5388660c6aabd9, type: 3}
      propertyPath: m_LocalRotation.y
      value: 0.7071068
      objectReference: {fileID: 0}
    - target: {fileID: 4422338931104976, guid: da24672af79d5b04da5388660c6aabd9, type: 3}
      propertyPath: m_LocalRotation.z
      value: 0
      objectReference: {fileID: 0}
    - target: {fileID: 4422338931104976, guid: da24672af79d5b04da5388660c6aabd9, type: 3}
      propertyPath: m_LocalRotation.w
      value: 0.7071068
      objectReference: {fileID: 0}
    - target: {fileID: 4422338931104976, guid: da24672af79d5b04da5388660c6aabd9, type: 3}
      propertyPath: m_RootOrder
      value: 1
      objectReference: {fileID: 0}
    - target: {fileID: 4422338931104976, guid: da24672af79d5b04da5388660c6aabd9, type: 3}
      propertyPath: m_LocalEulerAnglesHint.x
      value: 0
      objectReference: {fileID: 0}
    - target: {fileID: 4422338931104976, guid: da24672af79d5b04da5388660c6aabd9, type: 3}
      propertyPath: m_LocalEulerAnglesHint.y
      value: 90
      objectReference: {fileID: 0}
    - target: {fileID: 4422338931104976, guid: da24672af79d5b04da5388660c6aabd9, type: 3}
      propertyPath: m_LocalEulerAnglesHint.z
      value: 0
      objectReference: {fileID: 0}
    m_RemovedComponents: []
  m_SourcePrefab: {fileID: 100100000, guid: da24672af79d5b04da5388660c6aabd9, type: 3}
