%YAML 1.1
%TAG !u! tag:unity3d.com,2011:
--- !u!1001 &9040438790378057670
PrefabInstance:
  m_ObjectHideFlags: 0
  serializedVersion: 2
  m_Modification:
    m_TransformParent: {fileID: 0}
    m_Modifications:
    - target: {fileID: 6217969365413461046, guid: 84ec7bc77b684094e909496e49c0731e,
        type: 3}
      propertyPath: m_Name
      value: Tile - north
      objectReference: {fileID: 0}
    - target: {fileID: 6217969365413461033, guid: 84ec7bc77b684094e909496e49c0731e,
        type: 3}
      propertyPath: m_LocalPosition.x
      value: 0
      objectReference: {fileID: 0}
    - target: {fileID: 6217969365413461033, guid: 84ec7bc77b684094e909496e49c0731e,
        type: 3}
      propertyPath: m_LocalPosition.y
      value: 0
      objectReference: {fileID: 0}
    - target: {fileID: 6217969365413461033, guid: 84ec7bc77b684094e909496e49c0731e,
        type: 3}
      propertyPath: m_LocalPosition.z
      value: 0
      objectReference: {fileID: 0}
    - target: {fileID: 6217969365413461033, guid: 84ec7bc77b684094e909496e49c0731e,
        type: 3}
      propertyPath: m_LocalRotation.x
      value: 0
      objectReference: {fileID: 0}
    - target: {fileID: 6217969365413461033, guid: 84ec7bc77b684094e909496e49c0731e,
        type: 3}
      propertyPath: m_LocalRotation.y
      value: -0.7071068
      objectReference: {fileID: 0}
    - target: {fileID: 6217969365413461033, guid: 84ec7bc77b684094e909496e49c0731e,
        type: 3}
      propertyPath: m_LocalRotation.z
      value: 0
      objectReference: {fileID: 0}
    - target: {fileID: 6217969365413461033, guid: 84ec7bc77b684094e909496e49c0731e,
        type: 3}
      propertyPath: m_LocalRotation.w
      value: 0.7071068
      objectReference: {fileID: 0}
    - target: {fileID: 6217969365413461033, guid: 84ec7bc77b684094e909496e49c0731e,
        type: 3}
      propertyPath: m_RootOrder
      value: 0
      objectReference: {fileID: 0}
    - target: {fileID: 6217969365413461033, guid: 84ec7bc77b684094e909496e49c0731e,
        type: 3}
      propertyPath: m_LocalEulerAnglesHint.x
      value: 0
      objectReference: {fileID: 0}
    - target: {fileID: 6217969365413461033, guid: 84ec7bc77b684094e909496e49c0731e,
        type: 3}
      propertyPath: m_LocalEulerAnglesHint.y
      value: -90
      objectReference: {fileID: 0}
    - target: {fileID: 6217969365413461033, guid: 84ec7bc77b684094e909496e49c0731e,
        type: 3}
      propertyPath: m_LocalEulerAnglesHint.z
      value: 0
      objectReference: {fileID: 0}
    - target: {fileID: 4379828281756039482, guid: 84ec7bc77b684094e909496e49c0731e,
        type: 3}
      propertyPath: m_LocalRotation.x
      value: 0
      objectReference: {fileID: 0}
    - target: {fileID: 4379828281756039482, guid: 84ec7bc77b684094e909496e49c0731e,
        type: 3}
      propertyPath: m_LocalRotation.y
      value: 0
      objectReference: {fileID: 0}
    - target: {fileID: 4379828281756039482, guid: 84ec7bc77b684094e909496e49c0731e,
        type: 3}
      propertyPath: m_LocalRotation.z
      value: 0
      objectReference: {fileID: 0}
    - target: {fileID: 4379828281756039482, guid: 84ec7bc77b684094e909496e49c0731e,
        type: 3}
      propertyPath: m_LocalRotation.w
      value: 1
      objectReference: {fileID: 0}
    - target: {fileID: 4379828281756039482, guid: 84ec7bc77b684094e909496e49c0731e,
        type: 3}
      propertyPath: m_LocalEulerAnglesHint.y
      value: 0
      objectReference: {fileID: 0}
    - target: {fileID: 4379828281756039482, guid: 84ec7bc77b684094e909496e49c0731e,
        type: 3}
      propertyPath: m_LocalPosition.x
      value: 0.5
      objectReference: {fileID: 0}
    - target: {fileID: 4379828281756039482, guid: 84ec7bc77b684094e909496e49c0731e,
        type: 3}
      propertyPath: m_LocalPosition.z
      value: 0
      objectReference: {fileID: 0}
    - target: {fileID: 4082553725448437291, guid: 84ec7bc77b684094e909496e49c0731e,
        type: 3}
      propertyPath: m_Name
      value: North
      objectReference: {fileID: 0}
    m_RemovedComponents: []
  m_SourcePrefab: {fileID: 100100000, guid: 84ec7bc77b684094e909496e49c0731e, type: 3}
